{
  "version": 2,
  "projects": {
    "dashboard": "apps/dashboard",
    "dashboard-e2e": "apps/dashboard-e2e",
    "layout": "apps/layout",
    "layout-e2e": "apps/layout-e2e",
    "lays": "apps/lays",
    "lays-e2e": "apps/lays-e2e",
    "login": "apps/login",
    "login-e2e": "apps/login-e2e",
    "maps": "apps/maps",
    "maps-e2e": "apps/maps-e2e",
    "message": "apps/message",
    "message-e2e": "apps/message-e2e",
    "shared-data-access-user": "libs/shared/data-access-user"
  }
}
