{
  "projectType": "application",
  "root": "apps/dashboard",
  "sourceRoot": "apps/dashboard/src",
  "prefix": "practice",
  "targets": {
    "build": {
      "executor": "@nrwl/angular:webpack-browser",
      "outputs": ["{options.outputPath}"],
      "options": {
        "outputPath": "dist/apps/dashboard",
        "index": "apps/dashboard/src/index.html",
        "main": "apps/dashboard/src/main.ts",
        "polyfills": "apps/dashboard/src/polyfills.ts",
        "tsConfig": "apps/dashboard/tsconfig.app.json",
        "assets": [
          "apps/dashboard/src/favicon.ico",
          "apps/dashboard/src/assets"
        ],
        "styles": ["apps/dashboard/src/styles.css"],
        "scripts": [],
        "customWebpackConfig": {
          "path": "apps/dashboard/webpack.config.js"
        }
      },
      "configurations": {
        "production": {
          "budgets": [
            {
              "type": "initial",
              "maximumWarning": "500kb",
              "maximumError": "1mb"
            },
            {
              "type": "anyComponentStyle",
              "maximumWarning": "2kb",
              "maximumError": "4kb"
            }
          ],
          "fileReplacements": [
            {
              "replace": "apps/dashboard/src/environments/environment.ts",
              "with": "apps/dashboard/src/environments/environment.prod.ts"
            }
          ],
          "outputHashing": "all",
          "customWebpackConfig": {
            "path": "apps/dashboard/webpack.prod.config.js"
          }
        },
        "development": {
          "buildOptimizer": false,
          "optimization": false,
          "vendorChunk": true,
          "extractLicenses": false,
          "sourceMap": true,
          "namedChunks": true
        }
      },
      "defaultConfiguration": "production"
    },
    "serve": {
      "executor": "@nrwl/angular:webpack-server",
      "configurations": {
        "production": {
          "browserTarget": "dashboard:build:production"
        },
        "development": {
          "browserTarget": "dashboard:build:development"
        }
      },
      "defaultConfiguration": "development",
      "options": {
        "publicHost": "http://localhost:4200"
      }
    },
    "extract-i18n": {
      "executor": "@angular-devkit/build-angular:extract-i18n",
      "options": {
        "browserTarget": "dashboard:build"
      }
    },
    "lint": {
      "executor": "@nrwl/linter:eslint",
      "options": {
        "lintFilePatterns": [
          "apps/dashboard/src/**/*.ts",
          "apps/dashboard/src/**/*.html"
        ]
      }
    },
    "test": {
      "executor": "@nrwl/jest:jest",
      "outputs": ["coverage/apps/dashboard"],
      "options": {
        "jestConfig": "apps/dashboard/jest.config.js",
        "passWithNoTests": true
      }
    },
    "serve-mfe": {
      "executor": "@nrwl/workspace:run-commands",
      "options": {
        "commands": ["nx serve login", "nx serve dashboard", "nx serve lays","nx serve message",
          "nx serve maps",
          "nx serve layout"
        ]
      }
    }
  },
  "tags": []
}
